{
  "annotations": {
    "list": [
      {
        "builtIn": 1,
        "datasource": {
          "type": "datasource",
          "uid": "grafana"
        },
        "enable": true,
        "hide": true,
        "iconColor": "rgba(0, 211, 255, 1)",
        "name": "Annotations & Alerts",
        "target": {
          "limit": 100,
          "matchAny": false,
          "tags": [],
          "type": "dashboard"
        },
        "type": "dashboard"
      }
    ]
  },
  "description": "",
  "editable": true,
  "fiscalYearStartMonth": 0,
  "graphTooltip": 0,
  "id": 33,
  "links": [],
  "liveNow": false,
  "panels": [
    {
      "collapsed": true,
      "datasource": {
        "type": "datasource",
        "uid": "grafana"
      },
      "gridPos": {
        "h": 1,
        "w": 24,
        "x": 0,
        "y": 0
      },
      "id": 20,
      "panels": [
        {
          "aliasColors": {},
          "bars": false,
          "dashLength": 10,
          "dashes": false,
          "datasource": {
            "type": "prometheus",
            "uid": "${datasource}"
          },
          "description": "",
          "fieldConfig": {
            "defaults": {
              "links": []
            },
            "overrides": []
          },
          "fill": 1,
          "fillGradient": 0,
          "gridPos": {
            "h": 8,
            "w": 17,
            "x": 0,
            "y": 1
          },
          "hiddenSeries": false,
          "id": 2,
          "interval": "",
          "legend": {
            "alignAsTable": true,
            "avg": false,
            "current": true,
            "max": true,
            "min": false,
            "rightSide": true,
            "show": true,
            "total": false,
            "values": true
          },
          "lines": true,
          "linewidth": 1,
          "links": [],
          "nullPointMode": "null",
          "options": {
            "alertThreshold": true
          },
          "percentage": false,
          "pluginVersion": "9.1.7",
          "pointradius": 2,
          "points": false,
          "renderer": "flot",
          "repeatDirection": "h",
          "seriesOverrides": [],
          "spaceLength": 10,
          "stack": false,
          "steppedLine": false,
          "targets": [
            {
              "datasource": {
                "type": "prometheus",
                "uid": "${datasource}"
              },
              "editorMode": "code",
              "expr": "sum(rlm_feature_issued{name='$feature_name', server='$server'})",
              "format": "time_series",
              "instant": false,
              "interval": "1m",
              "intervalFactor": 1,
              "legendFormat": "Issued",
              "refId": "A"
            },
            {
              "datasource": {
                "type": "prometheus",
                "uid": "${datasource}"
              },
              "editorMode": "code",
              "expr": "sum(rlm_feature_used_users{name='$feature_name', server='$server'})",
              "format": "time_series",
              "hide": false,
              "instant": false,
              "interval": "1m",
              "intervalFactor": 1,
              "legendFormat": "Used",
              "refId": "B"
            },
            {
              "datasource": {
                "type": "prometheus",
                "uid": "${datasource}"
              },
              "editorMode": "code",
              "expr": "sum(rlm_feature_used_users{name='$feature_name', server='$server'})",
              "format": "time_series",
              "hide": true,
              "instant": false,
              "interval": "1m",
              "intervalFactor": 1,
              "legendFormat": "Used (Users)",
              "refId": "C"
            }
          ],
          "thresholds": [],
          "timeRegions": [],
          "title": "$feature_name ($server)",
          "tooltip": {
            "shared": true,
            "sort": 0,
            "value_type": "individual"
          },
          "type": "graph",
          "xaxis": {
            "mode": "time",
            "show": true,
            "values": []
          },
          "yaxes": [
            {
              "$$hashKey": "object:287",
              "format": "short",
              "logBase": 1,
              "min": "0",
              "show": true
            },
            {
              "$$hashKey": "object:288",
              "format": "short",
              "logBase": 1,
              "show": false
            }
          ],
          "yaxis": {
            "align": false
          }
        },
        {
          "datasource": {
            "type": "prometheus",
            "uid": "${datasource}"
          },
          "fieldConfig": {
            "defaults": {
              "color": {
                "mode": "thresholds"
              },
              "custom": {
                "align": "auto",
                "displayMode": "auto",
                "inspect": false
              },
              "mappings": [],
              "thresholds": {
                "mode": "absolute",
                "steps": [
                  {
                    "color": "green"
                  },
                  {
                    "color": "red",
                    "value": 80
                  }
                ]
              }
            },
            "overrides": [
              {
                "matcher": {
                  "id": "byName",
                  "options": "Time"
                },
                "properties": [
                  {
                    "id": "custom.align"
                  },
                  {
                    "id": "custom.hidden",
                    "value": true
                  }
                ]
              },
              {
                "matcher": {
                  "id": "byName",
                  "options": "Value"
                },
                "properties": [
                  {
                    "id": "custom.hidden",
                    "value": true
                  }
                ]
              }
            ]
          },
          "gridPos": {
            "h": 8,
            "w": 7,
            "x": 17,
            "y": 1
          },
          "id": 54,
          "links": [],
          "options": {
            "footer": {
              "fields": "",
              "reducer": [
                "sum"
              ],
              "show": false
            },
            "showHeader": true
          },
          "pluginVersion": "9.1.7",
          "targets": [
            {
              "datasource": {
                "type": "prometheus",
                "uid": "${datasource}"
              },
              "editorMode": "code",
              "expr": "sum(rlm_feature_used_users{name=\"$feature_name\", server=\"$server\"}) by (user, machine)",
              "format": "table",
              "instant": true,
              "interval": "",
              "intervalFactor": 1,
              "legendFormat": "{{user}}",
              "refId": "A"
            }
          ],
          "title": "Users",
          "transformations": [
            {
              "id": "merge",
              "options": {
                "reducers": []
              }
            }
          ],
          "type": "table"
        }
      ],
      "repeat": "feature_name",
      "targets": [
        {
          "datasource": {
            "type": "datasource",
            "uid": "grafana"
          },
          "refId": "A"
        }
      ],
      "title": "$feature_name",
      "type": "row"
    }
  ],
  "refresh": "5m",
  "schemaVersion": 37,
  "style": "dark",
  "tags": [],
  "templating": {
    "list": [
      {
        "current": {
          "selected": true,
          "text": [
            "nuke_i",
            "nukex_i"
          ],
          "value": [
            "nuke_i",
            "nukex_i"
          ]
        },
        "datasource": {
          "type": "prometheus",
          "uid": "${datasource}"
        },
        "definition": "label_values(rlm_feature_used, name)",
        "hide": 0,
        "includeAll": true,
        "label": "Feature",
        "multi": true,
        "name": "feature_name",
        "options": [],
        "query": {
          "query": "label_values(rlm_feature_used, name)",
          "refId": "StandardVariableQuery"
        },
        "refresh": 1,
        "regex": "",
        "skipUrlSync": false,
        "sort": 0,
        "tagValuesQuery": "",
        "tagsQuery": "",
        "type": "query",
        "useTags": false
      },
      {
        "current": {
          "selected": false,
          "text": "10.70.2.31",
          "value": "10.70.2.31"
        },
        "datasource": {
          "type": "prometheus",
          "uid": "${datasource}"
        },
        "definition": "label_values(rlm_feature_used, server)",
        "hide": 0,
        "includeAll": false,
        "label": "server",
        "multi": false,
        "name": "server",
        "options": [],
        "query": {
          "query": "label_values(rlm_feature_used, server)",
          "refId": "StandardVariableQuery"
        },
        "refresh": 1,
        "regex": "",
        "skipUrlSync": false,
        "sort": 0,
        "type": "query"
      },
      {
        "current": {
          "selected": false,
          "text": "Prometheus",
          "value": "Prometheus"
        },
        "hide": 0,
        "includeAll": false,
        "multi": false,
        "name": "datasource",
        "options": [],
        "query": "prometheus",
        "refresh": 1,
        "regex": "",
        "skipUrlSync": false,
        "type": "datasource"
      }
    ]
  },
  "time": {
    "from": "now-2d",
    "to": "now"
  },
  "timepicker": {
    "refresh_intervals": [
      "10s",
      "30s",
      "1m",
      "5m",
      "15m",
      "30m",
      "1h",
      "2h",
      "1d"
    ],
    "time_options": [
      "5m",
      "15m",
      "1h",
      "6h",
      "12h",
      "24h",
      "2d",
      "7d",
      "30d"
    ]
  },
  "timezone": "",
  "title": "RLM",
  "uid": "FY8bw-vWk",
  "version": 4,
  "weekStart": ""
}